{"status":"success","data":[{"recordType":"","recordId":434847,"methodInt":2,"method":"update","extraInfo":"","userId":0,"timeStamp":1781503201,"entityType":"series"},{"recordType":"","recordId":469484,"methodInt":2,"method":"update","extraInfo":"","userId":0,"timeStamp":1781503257,"entityType":"series"},{"recordType":"","recordId":372030,"methodInt":2,"method":"update","extraInfo":"","userId":0,"timeStamp":1781503307,"entityType":"series"}],"links":{"prev":null,"self":"https://api4.thetvdb.com/v4/updates?since=1781503200&type=series&page=0","next":"https://api4.thetvdb.com/v4/updates?since=1781503200&type=series&page=1","total_items":13919,"page_size":500}}