{"results":[{"id":1713517,"adult":false,"softcore":false},{"id":38702,"adult":false,"softcore":false},{"id":1712865,"adult":false,"softcore":false}],"page":2,"total_pages":2,"total_results":6}