{"results":[{"id":345,"adult":false,"softcore":false},{"id":1648226,"adult":false,"softcore":false},{"id":1713517,"adult":false,"softcore":false}],"page":1,"total_pages":2,"total_results":6}