{"results":[{"id":325296,"adult":false,"softcore":false},{"id":325358,"adult":false,"softcore":false},{"id":314402,"adult":false,"softcore":false}],"page":2,"total_pages":2,"total_results":6}