{"results":[{"id":23310,"adult":false,"softcore":false},{"id":325296,"adult":false,"softcore":false}],"page":1,"total_pages":2,"total_results":6}